nom, lat_coor1, long_coor1, adr_num, adr_voie, com_cp, com_insee, com_nom, acc, acc_lib, acc_pcsec, acc_acc, acc_etg, acc_complt, photo1, photo2, disp_j, disp_h, disp_complt, tel1, tel2, site_email, date_instal, etat, etat_fonct, fab_siren,  fab_rais, mnt_siren, mnt_rais, modele, num_serie, id_euro, lc_ped, dtpr_lcped, dtpr_lcad, dtpr_bat, freq_mnt, dispsurv, dermnt, expt_siren, expt_siret, expt_rais, expt_tel1, expt_tel2, expt_email
DAE-SalleSport-Rennes, 48.8521329, 2.3068453, 54, Rue de Rennes, 75350, 75056, Paris, intérieur, oui, oui, true, oui, acc_complt, "http://www.monsite.com/monimage.jpg", "htp://www.monsite.com/monimage.jpg", "mardi, mercredi, jeudi, vendredi", "test", complément d'information sur  la disponibilité du DAE, +3310203040506, +3310203040506, p.nom@domaine.fr, 2019-09-30, Actif, En fonctionnement, 123456789, Société SAS, 123456789, Société SAS, HeatSine Samaritan PAD, X09E409930, 123456789, oui, 2019-09-30, 2019-09-30, 2019-13-30, Tous les jours, oui, 2019-09-30, 123456789, 123456789000, Société SAS, +3310203040506, +3310203040506, p.nom@exemple.com
DAE-SalleSport-Dausmenil, 148.8521329, 2.3068453, 78, Avenue Dausmenil, 753500, 75056, Paris, intérieur, oui, oui, oui, oui, acc_complt, "www.monsite.com/monimage.jpg", "http://www.monsite.com/monimage.jpg", vendredidimanche, "heure ouvrable", complément d'information sur  la disponibilité du DAE, 010203040506, 010203040506, p.nom@@domaine.fr, 2019-09-30, Actif, En fonctionnement, 123456789, Société SAS, 123456789, Société SAS, HeatSine Samaritan PAD, X09E409930, 123456789, oui, 2019-09-30, 2019-09-30, 2019-09-30, Tous les 6 mois, oui, 2019-09-30, 123456789, 123456789000, Société SAS, +3310203040506, +3310203040506, p.nom@exemple.com
DAE-MinSanté-Duquesne, 48.8521329, 2.3068453, 14, Avenue Duquesne, 75350, 75056, Paris, intérieur, ouie, oui, oui, nonn, acc_complt, "http://www.monsite.com/monimage.txt", "http://www.monsite.com/monimage.jpg", "lundi|mardi|dimanche", "heures ouvrables", complément d'information sur  la disponibilité du DAE, +3310203040506, +3310203040506, p.nom@@domaine.fr, 2019-09-30, Actif, En fonctionnement, 123456789, Société SAS, 123456789, Société SAS, HeatSine Samaritan PAD, X09E409930, 123456789, oui, 2019-09-30, 2019-09-30, 2019-09-30, Tous les 6 moiss, oui, 2019-09-30, 123456789, 123456789000, Société SAS, +3310203040506, +3310203040506, p.nom@exemple.com
DAE-SalleSport-Rennes, 48.8521329, 2.3068453, 54, Rue de Rennes, 75350, 75056, Paris, intérieur, oui, oui, oui, oui, acc_complt, "http://www.monsite.com/monimage.bmp", "http://www.monsite.com/monimage.jpg", "mardi", "mercredi", complément d'information sur  la disponibilité du DAE, +3310203040506, +3310203040506, p.nom@domaine.fr, 2019-09-30, Actif, En fonctionnement, 123456789, Société SAS, 123456789, Société SAS, HeatSine Samaritan PAD, X09E409930, 123456789, oui, 2019-09-30, 2019-09-30, 2019-13-30, Tous les jours, oui, 2019-09-30, 123456789, 123456789000, Société SAS, +3310203040506, +3310203040506, p.nom@exemple.com